EESchema Schematic File Version 2
LIBS:power
LIBS:device
LIBS:transistors
LIBS:conn
LIBS:linear
LIBS:regul
LIBS:74xx
LIBS:cmos4000
LIBS:adc-dac
LIBS:memory
LIBS:xilinx
LIBS:special
LIBS:microcontrollers
LIBS:dsp
LIBS:microchip
LIBS:analog_switches
LIBS:motorola
LIBS:texas
LIBS:intel
LIBS:audio
LIBS:interface
LIBS:digital-audio
LIBS:philips
LIBS:display
LIBS:cypress
LIBS:siliconi
LIBS:opto
LIBS:atmel
LIBS:contrib
LIBS:valves
LIBS:gametin
EELAYER 27 0
EELAYER END
$Descr A4 11693 8268
encoding utf-8
Sheet 1 1
Title "Game Tin Display Board"
Date "16 Jan 2014"
Rev "A"
Comp "ShiftHack"
Comment1 "CC BY-SA 4.0"
Comment2 ""
Comment3 ""
Comment4 ""
$EndDescr
$Comp
L BQ25570 U1
U 1 1 528D75BE
P 4100 2500
F 0 "U1" H 3600 3250 60  0000 C CNN
F 1 "BQ25570" H 4100 2650 60  0000 C CNN
F 2 "" H 3800 2450 60  0000 C CNN
F 3 "" H 3800 2450 60  0000 C CNN
	1    4100 2500
	1    0    0    -1  
$EndComp
$Comp
L C C6
U 1 1 528D807C
P 8500 6050
F 0 "C6" H 8500 6150 40  0000 L CNN
F 1 "0.1uF" H 8506 5965 40  0000 L CNN
F 2 "" H 8538 5900 30  0000 C CNN
F 3 "" H 8500 6050 60  0000 C CNN
	1    8500 6050
	1    0    0    -1  
$EndComp
$Comp
L C C7
U 1 1 528D808B
P 8900 6050
F 0 "C7" H 8900 6150 40  0000 L CNN
F 1 "0.1uF" H 8906 5965 40  0000 L CNN
F 2 "" H 8938 5900 30  0000 C CNN
F 3 "" H 8900 6050 60  0000 C CNN
	1    8900 6050
	1    0    0    -1  
$EndComp
$Comp
L C C8
U 1 1 528D809A
P 9300 6050
F 0 "C8" H 9300 6150 40  0000 L CNN
F 1 "1uF" H 9306 5965 40  0000 L CNN
F 2 "" H 9338 5900 30  0000 C CNN
F 3 "" H 9300 6050 60  0000 C CNN
	1    9300 6050
	1    0    0    -1  
$EndComp
$Comp
L C C3
U 1 1 528D81B3
P 3250 950
F 0 "C3" H 3250 1050 40  0000 L CNN
F 1 "4.7uF" H 3256 865 40  0000 L CNN
F 2 "" H 3288 800 30  0000 C CNN
F 3 "" H 3250 950 60  0000 C CNN
	1    3250 950 
	1    0    0    -1  
$EndComp
$Comp
L C C5
U 1 1 528D81C2
P 5700 2600
F 0 "C5" H 5700 2700 40  0000 L CNN
F 1 "22uF" H 5706 2515 40  0000 L CNN
F 2 "" H 5738 2450 30  0000 C CNN
F 3 "" H 5700 2600 60  0000 C CNN
	1    5700 2600
	1    0    0    -1  
$EndComp
$Comp
L C C1
U 1 1 528D81D1
P 2350 2850
F 0 "C1" H 2350 2950 40  0000 L CNN
F 1 "4.7uF" H 2356 2765 40  0000 L CNN
F 2 "" H 2388 2700 30  0000 C CNN
F 3 "" H 2350 2850 60  0000 C CNN
	1    2350 2850
	1    0    0    -1  
$EndComp
$Comp
L INDUCTOR L2
U 1 1 528D824C
P 5050 1450
F 0 "L2" V 5000 1450 40  0000 C CNN
F 1 "10uH" V 5150 1450 40  0000 C CNN
F 2 "" H 5050 1450 60  0000 C CNN
F 3 "" H 5050 1450 60  0000 C CNN
	1    5050 1450
	0    -1   -1   0   
$EndComp
$Comp
L INDUCTOR L1
U 1 1 528D825B
P 2750 1450
F 0 "L1" V 2700 1450 40  0000 C CNN
F 1 "22uH" V 2850 1450 40  0000 C CNN
F 2 "" H 2750 1450 60  0000 C CNN
F 3 "" H 2750 1450 60  0000 C CNN
	1    2750 1450
	0    -1   -1   0   
$EndComp
$Comp
L R R4
U 1 1 5292D0BE
P 4500 3950
F 0 "R4" V 4580 3950 40  0000 C CNN
F 1 "6.65M" V 4507 3951 40  0000 C CNN
F 2 "" V 4430 3950 30  0000 C CNN
F 3 "" H 4500 3950 30  0000 C CNN
	1    4500 3950
	1    0    0    -1  
$EndComp
$Comp
L R R5
U 1 1 5292D0CD
P 4500 4550
F 0 "R5" V 4580 4550 40  0000 C CNN
F 1 "6.2M" V 4507 4551 40  0000 C CNN
F 2 "" V 4430 4550 30  0000 C CNN
F 3 "" H 4500 4550 30  0000 C CNN
	1    4500 4550
	1    0    0    -1  
$EndComp
$Comp
L GND #PWR01
U 1 1 5292D1F8
P 4100 5000
F 0 "#PWR01" H 4100 5000 30  0001 C CNN
F 1 "GND" H 4100 4930 30  0001 C CNN
F 2 "" H 4100 5000 60  0000 C CNN
F 3 "" H 4100 5000 60  0000 C CNN
	1    4100 5000
	1    0    0    -1  
$EndComp
$Comp
L GND #PWR02
U 1 1 52939E4B
P 2350 3150
F 0 "#PWR02" H 2350 3150 30  0001 C CNN
F 1 "GND" H 2350 3080 30  0001 C CNN
F 2 "" H 2350 3150 60  0000 C CNN
F 3 "" H 2350 3150 60  0000 C CNN
	1    2350 3150
	1    0    0    -1  
$EndComp
$Comp
L C C2
U 1 1 529422C5
P 2650 2850
F 0 "C2" H 2650 2950 40  0000 L CNN
F 1 "10nF" H 2656 2765 40  0000 L CNN
F 2 "" H 2688 2700 30  0000 C CNN
F 3 "" H 2650 2850 60  0000 C CNN
	1    2650 2850
	1    0    0    -1  
$EndComp
$Comp
L GND #PWR03
U 1 1 5294230C
P 2650 3150
F 0 "#PWR03" H 2650 3150 30  0001 C CNN
F 1 "GND" H 2650 3080 30  0001 C CNN
F 2 "" H 2650 3150 60  0000 C CNN
F 3 "" H 2650 3150 60  0000 C CNN
	1    2650 3150
	1    0    0    -1  
$EndComp
$Comp
L GND #PWR04
U 1 1 529423C0
P 5200 2150
F 0 "#PWR04" H 5200 2150 30  0001 C CNN
F 1 "GND" H 5200 2080 30  0001 C CNN
F 2 "" H 5200 2150 60  0000 C CNN
F 3 "" H 5200 2150 60  0000 C CNN
	1    5200 2150
	1    0    0    -1  
$EndComp
$Comp
L GND #PWR05
U 1 1 5294FB50
P 5700 2900
F 0 "#PWR05" H 5700 2900 30  0001 C CNN
F 1 "GND" H 5700 2830 30  0001 C CNN
F 2 "" H 5700 2900 60  0000 C CNN
F 3 "" H 5700 2900 60  0000 C CNN
	1    5700 2900
	1    0    0    -1  
$EndComp
$Comp
L GND #PWR06
U 1 1 5294FDD5
P 3250 1250
F 0 "#PWR06" H 3250 1250 30  0001 C CNN
F 1 "GND" H 3250 1180 30  0001 C CNN
F 2 "" H 3250 1250 60  0000 C CNN
F 3 "" H 3250 1250 60  0000 C CNN
	1    3250 1250
	1    0    0    -1  
$EndComp
Text Notes 650  800  0    79   ~ 16
Solar Energy Harvester
Text Notes 7150 4100 0    79   ~ 16
Memory Display
Text Notes 8550 6600 0    60   ~ 0
ceramic capacitors
$Comp
L GND #PWR07
U 1 1 529E8DD0
P 9750 6400
F 0 "#PWR07" H 9750 6400 30  0001 C CNN
F 1 "GND" H 9750 6330 30  0001 C CNN
F 2 "" H 9750 6400 60  0000 C CNN
F 3 "" H 9750 6400 60  0000 C CNN
	1    9750 6400
	1    0    0    -1  
$EndComp
$Comp
L R R6
U 1 1 529E95B1
P 9600 4800
F 0 "R6" V 9680 4800 40  0000 C CNN
F 1 "10k" V 9607 4801 40  0000 C CNN
F 2 "" V 9530 4800 30  0000 C CNN
F 3 "" H 9600 4800 30  0000 C CNN
	1    9600 4800
	1    0    0    -1  
$EndComp
Text GLabel 7950 5150 0    51   Input ~ 0
MLCD_SCLK
Text GLabel 7950 5250 0    51   Input ~ 0
MLCD_SI
Text GLabel 7950 5350 0    51   Input ~ 0
MLCD_SCS
Text Notes 650  5700 0    79   ~ 16
Interboard FPC
Text GLabel 7950 5450 0    51   Input ~ 0
MLCD_EXTCOMIN
Text GLabel 7950 5550 0    51   Input ~ 0
MLCD_DISP
Text GLabel 6100 2400 2    51   Output ~ 0
2.5V
$Comp
L TST P1
U 1 1 529EA00E
P 1650 2250
F 0 "P1" H 1650 2550 40  0000 C CNN
F 1 "TST" H 1650 2500 30  0000 C CNN
F 2 "" H 1650 2250 60  0000 C CNN
F 3 "" H 1650 2250 60  0000 C CNN
	1    1650 2250
	1    0    0    -1  
$EndComp
$Comp
L TST P4
U 1 1 529EA2D8
P 5950 2100
F 0 "P4" H 5950 2400 40  0000 C CNN
F 1 "TST" H 5950 2350 30  0000 C CNN
F 2 "" H 5950 2100 60  0000 C CNN
F 3 "" H 5950 2100 60  0000 C CNN
	1    5950 2100
	1    0    0    -1  
$EndComp
$Comp
L TST P3
U 1 1 529EA3BB
P 4100 1150
F 0 "P3" H 4100 1450 40  0000 C CNN
F 1 "TST" H 4100 1400 30  0000 C CNN
F 2 "" H 4100 1150 60  0000 C CNN
F 3 "" H 4100 1150 60  0000 C CNN
	1    4100 1150
	1    0    0    -1  
$EndComp
Text GLabel 2150 7100 2    51   Output ~ 0
MLCD_SCLK
Text GLabel 2150 7000 2    51   Output ~ 0
MLCD_SI
Text GLabel 2150 6900 2    51   Output ~ 0
MLCD_SCS
Text GLabel 2150 6800 2    51   Output ~ 0
MLCD_EXTCOMIN
Text GLabel 2150 6700 2    51   Output ~ 0
MLCD_DISP
Text GLabel 2150 6600 2    51   Input ~ 0
2.5V
$Comp
L GND #PWR08
U 1 1 52B6599B
P 1850 7250
F 0 "#PWR08" H 1850 7250 30  0001 C CNN
F 1 "GND" H 1850 7180 30  0001 C CNN
F 2 "" H 1850 7250 60  0000 C CNN
F 3 "" H 1850 7250 60  0000 C CNN
	1    1850 7250
	1    0    0    -1  
$EndComp
$Comp
L +3.3V #PWR09
U 1 1 52B660A1
P 2000 5950
F 0 "#PWR09" H 2000 5910 30  0001 C CNN
F 1 "+3.3V" H 2000 6060 30  0000 C CNN
F 2 "" H 2000 5950 60  0000 C CNN
F 3 "" H 2000 5950 60  0000 C CNN
	1    2000 5950
	1    0    0    -1  
$EndComp
$Comp
L +3.3V #PWR010
U 1 1 52B66495
P 9600 4400
F 0 "#PWR010" H 9600 4360 30  0001 C CNN
F 1 "+3.3V" H 9600 4510 30  0000 C CNN
F 2 "" H 9600 4400 60  0000 C CNN
F 3 "" H 9600 4400 60  0000 C CNN
	1    9600 4400
	1    0    0    -1  
$EndComp
Wire Wire Line
	5050 2600 5200 2600
Wire Wire Line
	2350 3050 2350 3150
Wire Wire Line
	2650 3050 2650 3150
Wire Wire Line
	5050 2400 6100 2400
Wire Wire Line
	5700 2800 5700 2900
Wire Wire Line
	5350 1450 5700 1450
Wire Wire Line
	5700 1450 5700 2400
Wire Wire Line
	4300 1450 4750 1450
Wire Wire Line
	9850 5950 9750 5950
Wire Wire Line
	9750 5950 9750 6400
Wire Wire Line
	9850 6050 9750 6050
Connection ~ 9750 6050
Wire Wire Line
	7950 5550 9850 5550
Wire Wire Line
	8900 5650 9850 5650
Wire Wire Line
	9300 5750 9850 5750
Wire Wire Line
	9300 5750 9300 5850
Wire Wire Line
	8900 5650 8900 5850
Wire Wire Line
	8500 5550 8500 5850
Wire Wire Line
	8500 6250 8500 6350
Wire Wire Line
	8500 6350 9750 6350
Connection ~ 9750 6350
Wire Wire Line
	8900 6250 8900 6350
Connection ~ 8900 6350
Wire Wire Line
	9300 6250 9300 6350
Connection ~ 9300 6350
Wire Wire Line
	9850 5850 9600 5850
Wire Wire Line
	9600 5850 9600 5050
Wire Wire Line
	9850 5150 7950 5150
Wire Wire Line
	9850 5250 7950 5250
Wire Wire Line
	9850 5350 7950 5350
Wire Wire Line
	9850 5450 7950 5450
Connection ~ 8500 5550
Connection ~ 5700 2400
Wire Wire Line
	5950 2100 5950 2400
Connection ~ 5950 2400
Wire Wire Line
	1700 6200 1850 6200
Wire Wire Line
	1850 6200 1850 7250
Wire Wire Line
	1700 6300 1850 6300
Connection ~ 1850 6300
Wire Wire Line
	1700 6500 1850 6500
Connection ~ 1850 6500
Wire Wire Line
	2150 7100 1700 7100
Wire Wire Line
	1700 7000 2150 7000
Wire Wire Line
	2150 6900 1700 6900
Wire Wire Line
	1700 6800 2150 6800
Wire Wire Line
	2150 6700 1700 6700
Wire Notes Line
	7050 500  7050 7000
Wire Notes Line
	7050 3900 11200 3900
Wire Wire Line
	1700 6400 2000 6400
Wire Wire Line
	2000 6400 2000 5950
Wire Wire Line
	2150 6600 1700 6600
Wire Wire Line
	9600 4550 9600 4400
Text Notes 1000 2350 0    60   ~ 0
current shunt
$Comp
L GND #PWR011
U 1 1 52BCED4C
P 6550 2200
F 0 "#PWR011" H 6550 2200 30  0001 C CNN
F 1 "GND" H 6550 2130 30  0001 C CNN
F 2 "" H 6550 2200 60  0000 C CNN
F 3 "" H 6550 2200 60  0000 C CNN
	1    6550 2200
	1    0    0    -1  
$EndComp
$Comp
L TST P5
U 1 1 52BCED65
P 6550 2100
F 0 "P5" H 6550 2400 40  0000 C CNN
F 1 "TST" H 6550 2350 30  0000 C CNN
F 2 "" H 6550 2100 60  0000 C CNN
F 3 "" H 6550 2100 60  0000 C CNN
	1    6550 2100
	1    0    0    -1  
$EndComp
Wire Wire Line
	6550 2100 6550 2200
$Comp
L GND #PWR012
U 1 1 52BCF1CC
P 3100 3150
F 0 "#PWR012" H 3100 3150 30  0001 C CNN
F 1 "GND" H 3100 3080 30  0001 C CNN
F 2 "" H 3100 3150 60  0000 C CNN
F 3 "" H 3100 3150 60  0000 C CNN
	1    3100 3150
	1    0    0    -1  
$EndComp
Wire Wire Line
	3150 2700 3100 2700
Wire Wire Line
	3100 2700 3100 3150
Text GLabel 2950 700  0    51   Output ~ 0
VSTOR
Text GLabel 3800 3550 0    51   Input ~ 0
VSTOR
Wire Wire Line
	3900 3450 3900 3550
Wire Wire Line
	3900 3550 3800 3550
$Comp
L R R2
U 1 1 52BE5F0C
P 3650 3950
F 0 "R2" V 3730 3950 40  0000 C CNN
F 1 "7.5M" V 3657 3951 40  0000 C CNN
F 2 "" V 3580 3950 30  0000 C CNN
F 3 "" H 3650 3950 30  0000 C CNN
	1    3650 3950
	1    0    0    -1  
$EndComp
$Comp
L R R3
U 1 1 52BE5F1B
P 3650 4550
F 0 "R3" V 3730 4550 40  0000 C CNN
F 1 "5.76M" V 3657 4551 40  0000 C CNN
F 2 "" V 3580 4550 30  0000 C CNN
F 3 "" H 3650 4550 30  0000 C CNN
	1    3650 4550
	1    0    0    -1  
$EndComp
Wire Wire Line
	4300 1450 4300 1550
Wire Wire Line
	3900 1450 3900 1550
Wire Wire Line
	4100 1150 4100 1550
Wire Wire Line
	4000 700  4000 1550
$Comp
L +3.3V #PWR013
U 1 1 52BF05E7
P 9400 4400
F 0 "#PWR013" H 9400 4360 30  0001 C CNN
F 1 "+3.3V" H 9400 4510 30  0000 C CNN
F 2 "" H 9400 4400 60  0000 C CNN
F 3 "" H 9400 4400 60  0000 C CNN
	1    9400 4400
	1    0    0    -1  
$EndComp
Wire Wire Line
	9400 4400 9400 5750
Connection ~ 9400 5650
Connection ~ 9400 5750
Wire Wire Line
	1600 2900 1600 3000
$Comp
L GND #PWR014
U 1 1 52BF60A7
P 1600 3500
F 0 "#PWR014" H 1600 3500 30  0001 C CNN
F 1 "GND" H 1600 3430 30  0001 C CNN
F 2 "" H 1600 3500 60  0000 C CNN
F 3 "" H 1600 3500 60  0000 C CNN
	1    1600 3500
	1    0    0    -1  
$EndComp
Wire Wire Line
	1600 3400 1600 3500
$Comp
L GND #PWR015
U 1 1 52BF64F8
P 4200 3550
F 0 "#PWR015" H 4200 3550 30  0001 C CNN
F 1 "GND" H 4200 3480 30  0001 C CNN
F 2 "" H 4200 3550 60  0000 C CNN
F 3 "" H 4200 3550 60  0000 C CNN
	1    4200 3550
	1    0    0    -1  
$EndComp
Wire Wire Line
	4200 3450 4200 3550
$Comp
L GND #PWR016
U 1 1 52BF656D
P 4300 1150
F 0 "#PWR016" H 4300 1150 30  0001 C CNN
F 1 "GND" H 4300 1080 30  0001 C CNN
F 2 "" H 4300 1150 60  0000 C CNN
F 3 "" H 4300 1150 60  0000 C CNN
	1    4300 1150
	1    0    0    -1  
$EndComp
Wire Wire Line
	4200 1550 4200 1050
Wire Wire Line
	4200 1050 4300 1050
Wire Wire Line
	4300 1050 4300 1150
Wire Wire Line
	5050 2300 5100 2300
Wire Wire Line
	5100 2300 5100 2050
Wire Wire Line
	5100 2050 5200 2050
Wire Wire Line
	5200 2050 5200 2150
$Comp
L GND #PWR017
U 1 1 52C21390
P 5400 2700
F 0 "#PWR017" H 5400 2700 30  0001 C CNN
F 1 "GND" H 5400 2630 30  0001 C CNN
F 2 "" H 5400 2700 60  0000 C CNN
F 3 "" H 5400 2700 60  0000 C CNN
	1    5400 2700
	1    0    0    -1  
$EndComp
Wire Wire Line
	5050 2500 5400 2500
Wire Wire Line
	5400 2500 5400 2700
Wire Wire Line
	4000 3450 4000 4250
Wire Wire Line
	4000 4250 3650 4250
Wire Wire Line
	3650 4200 3650 4300
Connection ~ 3650 4250
Wire Wire Line
	4100 3450 4100 3650
Wire Wire Line
	3650 3650 3650 3700
Connection ~ 4100 3650
Wire Wire Line
	4500 3650 4500 3700
Wire Wire Line
	4500 4200 4500 4300
Connection ~ 4500 4250
Wire Wire Line
	5200 2600 5200 4250
Text Notes 2150 4100 0    60   ~ 0
VBAT_OV = 4.18 V\nVBAT_UV = 2 V (internal)\nVBAT_OK = DISABLED\nVBAT_OK_HYST = DISABLED\nVOUT = 2.5V
Text Notes 2150 4000 0    60   ~ 0
VMPPT = 80% VOC
Text GLabel 5100 2850 3    51   Input ~ 0
VSTOR
Wire Wire Line
	5050 2700 5100 2700
Wire Wire Line
	5100 2700 5100 2850
Wire Wire Line
	4300 3450 4300 3500
Wire Wire Line
	4300 3500 4200 3500
Connection ~ 4200 3500
Wire Wire Line
	3650 3650 4500 3650
Wire Wire Line
	3650 4800 3650 4900
Wire Wire Line
	3650 4900 4500 4900
Wire Wire Line
	4500 4900 4500 4800
Wire Wire Line
	4100 4900 4100 5000
Connection ~ 4100 4900
Wire Wire Line
	5200 4250 4500 4250
Text Notes 7150 4250 0    60   ~ 0
Sharp LS013B7DH03 1.28" 128x128 
Text Notes 650  950  0    60   ~ 0
TI BQ25570
$Comp
L GND #PWR018
U 1 1 52D89CD0
P 2900 1900
F 0 "#PWR018" H 2900 1900 30  0001 C CNN
F 1 "GND" H 2900 1830 30  0001 C CNN
F 2 "" H 2900 1900 60  0000 C CNN
F 3 "" H 2900 1900 60  0000 C CNN
	1    2900 1900
	1    0    0    -1  
$EndComp
Wire Wire Line
	3050 2300 3150 2300
Wire Wire Line
	3050 1550 3050 2300
Text GLabel 3000 2500 0    51   Input ~ 0
VSTOR
Wire Wire Line
	3150 2500 3000 2500
$Comp
L C C4
U 1 1 52D89EA4
P 3550 950
F 0 "C4" H 3550 1050 40  0000 L CNN
F 1 "0.1uF" H 3556 865 40  0000 L CNN
F 2 "" H 3588 800 30  0000 C CNN
F 3 "" H 3550 950 60  0000 C CNN
	1    3550 950 
	1    0    0    -1  
$EndComp
Wire Wire Line
	3250 750  3250 700 
Wire Wire Line
	2950 700  4000 700 
Wire Wire Line
	3550 700  3550 750 
Wire Wire Line
	3550 1150 3550 1200
Wire Wire Line
	3550 1200 3250 1200
Wire Wire Line
	3250 1150 3250 1250
Connection ~ 3250 1200
Connection ~ 3250 700 
Connection ~ 3550 700 
Wire Wire Line
	4000 1450 4100 1450
Connection ~ 4100 1450
Connection ~ 4000 1450
Wire Notes Line
	500  5400 7050 5400
$Comp
L PWR_FLAG #FLG019
U 1 1 52D8AD07
P 3250 6600
F 0 "#FLG019" H 3250 6695 30  0001 C CNN
F 1 "PWR_FLAG" H 3250 6780 30  0000 C CNN
F 2 "" H 3250 6600 60  0000 C CNN
F 3 "" H 3250 6600 60  0000 C CNN
	1    3250 6600
	1    0    0    -1  
$EndComp
Wire Wire Line
	3250 6600 3250 6700
$Comp
L +3.3V #PWR020
U 1 1 52D8AE49
P 3500 6550
F 0 "#PWR020" H 3500 6510 30  0001 C CNN
F 1 "+3.3V" H 3500 6660 30  0000 C CNN
F 2 "" H 3500 6550 60  0000 C CNN
F 3 "" H 3500 6550 60  0000 C CNN
	1    3500 6550
	1    0    0    -1  
$EndComp
Wire Wire Line
	3250 6700 3500 6700
Wire Wire Line
	3500 6700 3500 6550
$Comp
L KXOB22-12X1 V1
U 1 1 52FAE1C6
P 1600 2700
F 0 "V1" H 1300 2800 60  0000 C CNN
F 1 "KXOB22-12X1" H 1050 2700 60  0000 C CNN
F 2 "" H 1717 2811 60  0000 C CNN
F 3 "" H 1717 2811 60  0000 C CNN
	1    1600 2700
	1    0    0    -1  
$EndComp
$Comp
L KXOB22-12X1 V2
U 1 1 52FAE1F3
P 1600 3200
F 0 "V2" H 1300 3300 60  0000 C CNN
F 1 "KXOB22-12X1" H 1050 3200 60  0000 C CNN
F 2 "" H 1717 3311 60  0000 C CNN
F 3 "" H 1717 3311 60  0000 C CNN
	1    1600 3200
	1    0    0    -1  
$EndComp
Wire Wire Line
	3800 1550 2900 1550
Wire Wire Line
	2900 1550 2900 1900
Connection ~ 3050 1550
$Comp
L BOARDFPC J1
U 1 1 52FC3B76
P 1400 6650
F 0 "J1" H 1800 6050 60  0000 C CNN
F 1 "BOARDFPC" H 1600 7300 60  0000 C CNN
F 2 "" H 1250 6300 60  0000 C CNN
F 3 "" H 1250 6300 60  0000 C CNN
	1    1400 6650
	-1   0    0    1   
$EndComp
$Comp
L DISPLAYFPC J2
U 1 1 52FC3C5F
P 10150 5600
F 0 "J2" H 10200 6200 60  0000 C CNN
F 1 "DISPLAYFPC" H 10400 4950 60  0000 C CNN
F 2 "" H 10000 5250 60  0000 C CNN
F 3 "" H 10000 5250 60  0000 C CNN
	1    10150 5600
	1    0    0    -1  
$EndComp
$Comp
L R R1
U 1 1 52BCE792
P 1900 2400
F 0 "R1" V 1980 2400 40  0000 C CNN
F 1 "0" V 1907 2401 40  0000 C CNN
F 2 "" V 1830 2400 30  0000 C CNN
F 3 "" H 1900 2400 30  0000 C CNN
	1    1900 2400
	0    -1   -1   0   
$EndComp
Wire Wire Line
	3150 2600 2650 2600
Wire Wire Line
	2650 2600 2650 2650
Wire Wire Line
	2150 2400 3150 2400
Wire Wire Line
	2350 1450 2350 2650
Connection ~ 2350 2400
Wire Wire Line
	1650 2400 1600 2400
Wire Wire Line
	1600 2400 1600 2500
$Comp
L TST P2
U 1 1 52FFD180
P 2150 2250
F 0 "P2" H 2150 2550 40  0000 C CNN
F 1 "TST" H 2150 2500 30  0000 C CNN
F 2 "" H 2150 2250 60  0000 C CNN
F 3 "" H 2150 2250 60  0000 C CNN
	1    2150 2250
	1    0    0    -1  
$EndComp
Wire Wire Line
	3900 1450 3050 1450
Wire Wire Line
	2450 1450 2350 1450
Wire Wire Line
	2150 2250 2150 2400
Wire Wire Line
	1650 2250 1650 2400
$EndSCHEMATC
